-------------------------------------------------------------------------------
Test set: org.bukkit.ArtTest
-------------------------------------------------------------------------------
Tests run: 3, Failures: 0, Errors: 0, Skipped: 0, Time elapsed: 0.031 sec - in org.bukkit.ArtTest
