org/bukkit/potion/PotionTest$1.class
org/bukkit/util/StringUtilStartsWithTest.class
org/bukkit/plugin/PluginManagerTest$3.class
org/bukkit/metadata/LazyMetadataValueTest$2.class
org/bukkit/util/StringUtilTest.class
org/bukkit/plugin/TestPlugin.class
org/bukkit/EntityEffectTest.class
org/bukkit/CoalTypeTest.class
org/bukkit/BukkitMirrorTest$1.class
org/bukkit/TestServer$2.class
org/bukkit/NoteTest.class
org/bukkit/conversations/ConversationTest$SecondPrompt.class
org/bukkit/configuration/file/YamlConfigurationTest.class
org/bukkit/conversations/ValidatingPromptTest$TestNumericPrompt.class
org/bukkit/util/io/BukkitObjectStreamTest.class
org/bukkit/plugin/TimedRegisteredListenerTest$2.class
org/bukkit/ChatColorTest.class
org/bukkit/LocationTest.class
org/bukkit/GrassSpeciesTest.class
org/bukkit/TestServer$5.class
org/bukkit/plugin/messaging/StandardMessengerTest.class
org/bukkit/InstrumentTest.class
org/bukkit/conversations/ValidatingPromptTest.class
org/bukkit/plugin/messaging/TestPlayer.class
org/bukkit/DyeColorTest.class
org/bukkit/configuration/ConfigurationSectionTest.class
org/bukkit/metadata/MetadataStoreTest.class
org/bukkit/CropStateTest.class
org/bukkit/TestServer$6.class
org/bukkit/conversations/ConversationTest.class
org/bukkit/conversations/ConversationContextTest.class
org/bukkit/plugin/messaging/TestPlayer$MethodHandler.class
org/bukkit/plugin/PluginManagerTest$2.class
org/bukkit/conversations/ValidatingPromptTest$TestFixedSetPrompt.class
org/bukkit/plugin/PluginManagerTest$MutableObject.class
org/bukkit/metadata/LazyMetadataValueTest$5.class
org/bukkit/metadata/FixedMetadataValueTest.class
org/bukkit/plugin/PluginManagerTest.class
org/bukkit/plugin/TimedRegisteredListenerTest$1.class
org/bukkit/TreeSpeciesTest.class
org/bukkit/plugin/messaging/TestMessageListener.class
org/bukkit/conversations/FakeConversable.class
org/bukkit/ArtTest.class
org/bukkit/metadata/MetadataStoreTest$1.class
org/bukkit/configuration/MemorySectionTest.class
org/bukkit/configuration/MemoryConfigurationTest.class
org/bukkit/WorldTypeTest.class
org/bukkit/conversations/ValidatingPromptTest$TestRegexPrompt.class
org/bukkit/configuration/ConfigurationTest.class
org/bukkit/potion/PotionTest.class
org/bukkit/ColorTest$TestColor.class
org/bukkit/TestServer.class
org/bukkit/metadata/LazyMetadataValueTest$4.class
org/bukkit/BukkitMirrorTest.class
org/bukkit/EffectTest.class
org/bukkit/plugin/PluginManagerTest$1.class
org/bukkit/conversations/ValidatingPromptTest$TestBooleanPrompt.class
org/bukkit/event/TestEvent.class
org/bukkit/TestServer$3.class
org/bukkit/metadata/MetadataConversionTest.class
org/bukkit/metadata/LazyMetadataValueTest$3.class
org/bukkit/configuration/ConfigurationSectionTest$TestEnum.class
org/bukkit/TestServer$1.class
org/bukkit/metadata/MetadataStoreTest$2.class
org/bukkit/DifficultyTest.class
org/bukkit/plugin/PluginManagerTest$4.class
org/bukkit/metadata/MetadataStoreTest$Counter.class
org/bukkit/metadata/LazyMetadataValueTest$1.class
org/bukkit/TestServer$MethodHandler.class
org/bukkit/ColorTest.class
org/bukkit/metadata/MetadataValueAdapterTest$IncrementingMetaValue.class
org/bukkit/configuration/file/FileConfigurationTest.class
org/bukkit/GameModeTest.class
org/bukkit/TestServer$4.class
org/bukkit/metadata/MetadataValueAdapterTest.class
org/bukkit/ChatPaginatorTest.class
org/bukkit/event/PlayerChatTabCompleteEventTest.class
org/bukkit/metadata/LazyMetadataValueTest.class
org/bukkit/metadata/MetadataStoreTest$StringMetadataStore.class
org/bukkit/conversations/ConversationTest$FirstPrompt.class
org/bukkit/plugin/TimedRegisteredListenerTest.class
org/bukkit/metadata/LazyMetadataValueTest$Counter.class
org/bukkit/MaterialTest.class
