-------------------------------------------------------------------------------
Test set: org.bukkit.configuration.MemoryConfigurationTest
-------------------------------------------------------------------------------
Tests run: 6, Failures: 0, Errors: 0, Skipped: 0, Time elapsed: 0.024 sec
