-------------------------------------------------------------------------------
Test set: org.bukkit.util.io.BukkitObjectStreamTest
-------------------------------------------------------------------------------
Tests run: 6, Failures: 0, Errors: 0, Skipped: 3, Time elapsed: 0.563 sec
