-------------------------------------------------------------------------------
Test set: org.bukkit.ArtTest
-------------------------------------------------------------------------------
Tests run: 5, Failures: 0, Errors: 0, Skipped: 0, Time elapsed: 0.043 sec
