<?xml version="1.0" encoding="UTF-8" ?>
<testsuite tests="17" failures="0" name="org.bukkit.configuration.file.YamlConfigurationTest" time="0.653" errors="0" skipped="0">
  <properties>
    <property name="java.runtime.name" value="Java(TM) SE Runtime Environment"/>
    <property name="sun.boot.library.path" value="/usr/lib/jvm/java-8-oracle/jre/lib/amd64"/>
    <property name="java.vm.version" value="25.171-b11"/>
    <property name="java.vm.vendor" value="Oracle Corporation"/>
    <property name="maven.multiModuleProjectDirectory" value="/home/zamion101/Desktop/ZamiSpigot/Spigot"/>
    <property name="java.vendor.url" value="http://java.oracle.com/"/>
    <property name="path.separator" value=":"/>
    <property name="guice.disable.misplaced.annotation.check" value="true"/>
    <property name="java.vm.name" value="Java HotSpot(TM) 64-Bit Server VM"/>
    <property name="file.encoding.pkg" value="sun.io"/>
    <property name="user.country" value="US"/>
    <property name="sun.java.launcher" value="SUN_STANDARD"/>
    <property name="sun.os.patch.level" value="unknown"/>
    <property name="java.vm.specification.name" value="Java Virtual Machine Specification"/>
    <property name="user.dir" value="/home/zamion101/Desktop/ZamiSpigot/Spigot"/>
    <property name="java.runtime.version" value="1.8.0_171-b11"/>
    <property name="java.awt.graphicsenv" value="sun.awt.X11GraphicsEnvironment"/>
    <property name="java.endorsed.dirs" value="/usr/lib/jvm/java-8-oracle/jre/lib/endorsed"/>
    <property name="os.arch" value="amd64"/>
    <property name="java.io.tmpdir" value="/tmp"/>
    <property name="line.separator" value="
"/>
    <property name="java.vm.specification.vendor" value="Oracle Corporation"/>
    <property name="os.name" value="Linux"/>
    <property name="classworlds.conf" value="/usr/share/maven/bin/m2.conf"/>
    <property name="sun.jnu.encoding" value="UTF-8"/>
    <property name="java.library.path" value="/usr/java/packages/lib/amd64:/usr/lib64:/lib64:/lib:/usr/lib"/>
    <property name="maven.conf" value="/usr/share/maven/conf"/>
    <property name="java.specification.name" value="Java Platform API Specification"/>
    <property name="java.class.version" value="52.0"/>
    <property name="sun.management.compiler" value="HotSpot 64-Bit Tiered Compilers"/>
    <property name="os.version" value="4.15.0-23-generic"/>
    <property name="library.jansi.path" value="/usr/share/maven/lib/jansi-native"/>
    <property name="user.home" value="/home/zamion101"/>
    <property name="user.timezone" value="Europe/Istanbul"/>
    <property name="java.awt.printerjob" value="sun.print.PSPrinterJob"/>
    <property name="java.specification.version" value="1.8"/>
    <property name="file.encoding" value="UTF-8"/>
    <property name="user.name" value="zamion101"/>
    <property name="java.class.path" value="/usr/share/maven/boot/plexus-classworlds-2.x.jar"/>
    <property name="java.vm.specification.version" value="1.8"/>
    <property name="sun.arch.data.model" value="64"/>
    <property name="java.home" value="/usr/lib/jvm/java-8-oracle/jre"/>
    <property name="sun.java.command" value="org.codehaus.plexus.classworlds.launcher.Launcher deploy"/>
    <property name="java.specification.vendor" value="Oracle Corporation"/>
    <property name="user.language" value="en"/>
    <property name="awt.toolkit" value="sun.awt.X11.XToolkit"/>
    <property name="java.vm.info" value="mixed mode"/>
    <property name="java.version" value="1.8.0_171"/>
    <property name="java.ext.dirs" value="/usr/lib/jvm/java-8-oracle/jre/lib/ext:/usr/java/packages/lib/ext"/>
    <property name="securerandom.source" value="file:/dev/./urandom"/>
    <property name="sun.boot.class.path" value="/usr/lib/jvm/java-8-oracle/jre/lib/resources.jar:/usr/lib/jvm/java-8-oracle/jre/lib/rt.jar:/usr/lib/jvm/java-8-oracle/jre/lib/sunrsasign.jar:/usr/lib/jvm/java-8-oracle/jre/lib/jsse.jar:/usr/lib/jvm/java-8-oracle/jre/lib/jce.jar:/usr/lib/jvm/java-8-oracle/jre/lib/charsets.jar:/usr/lib/jvm/java-8-oracle/jre/lib/jfr.jar:/usr/lib/jvm/java-8-oracle/jre/classes"/>
    <property name="java.vendor" value="Oracle Corporation"/>
    <property name="maven.home" value="/usr/share/maven"/>
    <property name="file.separator" value="/"/>
    <property name="java.vendor.url.bug" value="http://bugreport.sun.com/bugreport/"/>
    <property name="sun.cpu.endian" value="little"/>
    <property name="sun.io.unicode.encoding" value="UnicodeLittle"/>
    <property name="sun.desktop" value="gnome"/>
    <property name="sun.cpu.isalist" value=""/>
  </properties>
  <testcase classname="org.bukkit.configuration.file.YamlConfigurationTest" name="testSaveToStringWithIndent" time="0.278"/>
  <testcase classname="org.bukkit.configuration.file.YamlConfigurationTest" name="testCopyHeader" time="0.152"/>
  <testcase classname="org.bukkit.configuration.file.YamlConfigurationTest" name="testLoad_String" time="0.021"/>
  <testcase classname="org.bukkit.configuration.file.YamlConfigurationTest" name="testParseHeader" time="0.024"/>
  <testcase classname="org.bukkit.configuration.file.YamlConfigurationTest" name="testSaveToString" time="0.016"/>
  <testcase classname="org.bukkit.configuration.file.YamlConfigurationTest" name="testSave_String" time="0.04"/>
  <testcase classname="org.bukkit.configuration.file.YamlConfigurationTest" name="testSaveToStringWithHeader" time="0.013"/>
  <testcase classname="org.bukkit.configuration.file.YamlConfigurationTest" name="testReloadEmptyConfig" time="0.01"/>
  <testcase classname="org.bukkit.configuration.file.YamlConfigurationTest" name="testSave_File" time="0.02"/>
  <testcase classname="org.bukkit.configuration.file.YamlConfigurationTest" name="testLoadFromString" time="0.027"/>
  <testcase classname="org.bukkit.configuration.file.YamlConfigurationTest" name="testLoad_File" time="0.018"/>
  <testcase classname="org.bukkit.configuration.file.YamlConfigurationTest" name="testAddDefault" time="0.001"/>
  <testcase classname="org.bukkit.configuration.file.YamlConfigurationTest" name="testAddDefaults_Configuration" time="0.008"/>
  <testcase classname="org.bukkit.configuration.file.YamlConfigurationTest" name="testAddDefaults_Map" time="0.015"/>
  <testcase classname="org.bukkit.configuration.file.YamlConfigurationTest" name="testCreateSection" time="0.001"/>
  <testcase classname="org.bukkit.configuration.file.YamlConfigurationTest" name="testSetDefaults" time="0.005"/>
  <testcase classname="org.bukkit.configuration.file.YamlConfigurationTest" name="testGetDefaults" time="0.004"/>
</testsuite>